%YAML 1.1
%TAG !u! tag:unity3d.com,2011:
--- !u!1045 &1
EditorBuildSettings:
  m_ObjectHideFlags: 0
  serializedVersion: 2
  m_Scenes:
  - enabled: 1
    path: Assets/Scenes/MainMenuScene.unity
    guid: 35a3d781c369fb54b9e875cd35d01bf2
  - enabled: 1
    path: Assets/Scenes/MainGame.unity
    guid: 2bd8296e7fef1ee4884281430aef9b08
  - enabled: 1
    path: Assets/Scenes/Minigame1.unity
    guid: a5eb9cc0ad8eed64eb4958637c262b8e
  - enabled: 1
    path: Assets/Scenes/Minigame2.unity
    guid: a86e077ba701b3940bfe2b5e5660d3d9
  - enabled: 1
    path: Assets/Scenes/Minigame3.unity
    guid: 920665afae5c5ec4ea61a2e30d2bc31a
  - enabled: 1
    path: Assets/Scenes/Minigame4.unity
    guid: 619777d2f16ab0148ab1785eb6933a4b
  - enabled: 1
    path: Assets/Scenes/DS-Intro.unity
    guid: fc670d6c29a5eb842b7c2879517ecc72
  - enabled: 1
    path: Assets/Scenes/Minigame5.unity
    guid: 8200e95de0a46fc4bb57effaf75424e7
  - enabled: 1
    path: Assets/Scenes/DS-1.unity
    guid: 46814e1d19224fd488ff917b9e7b95e3
  - enabled: 1
    path: Assets/Scenes/DS-mini1-intro.unity
    guid: ec66968f8afb7c0419ba79b9aacb8fc2
  - enabled: 1
    path: Assets/Scenes/DS-mini1-epi.unity
    guid: dca370b6abdbb744ba51d14ab3e80d7f
  - enabled: 1
    path: Assets/Scenes/DS-mini5-intro.unity
    guid: 51f5cf3db0055cf4b9fe1a23dfe225a2
  - enabled: 1
    path: Assets/Scenes/DS-mini5-epi.unity
    guid: cc79c74205794264c865cfcf7321aad0
  - enabled: 1
    path: Assets/Scenes/DS-mini2-intro.unity
    guid: 035384b139c4c034089777736bee2585
  - enabled: 1
    path: Assets/Scenes/DS-mini2-epi.unity
    guid: 320da0e02adb65242b2b01a11bcfe2b3
  - enabled: 1
    path: Assets/Scenes/DS-mini3-intro.unity
    guid: 0eaf6dd8dcb0b2c43a4d62927e351161
  - enabled: 1
    path: Assets/Scenes/DS-mini3-epi.unity
    guid: af3be77eabbca6f489a2c2ff40137dd7
  - enabled: 1
    path: Assets/Scenes/DS-Ending.unity
    guid: 5f7438f46f8e90048951253572e31a3f
  m_configObjects: {}
